90184,洪祈琛,Tim
90493,黃衍騮,Ian
90157,張志農,John
90366,白明龍,Mark
90510,華明煌,Vincent
90513,吳郁柔,Zora
70106,陳源益,YY
90014,莊一中,Erick
80258,何氏妙賢,Hien
80070,梁慧妮,Annie
80285,PARK HYO SIK,HS
90350,張惠靜,Mei
90394,盧亮尹,Swook
90418,林俞君,Coni
90532,張益昌,Timmy
90342,莊智強,John
80331,DOMBAR GANESH,Ganesh
90328,張惠婷,Cannie
90505,傅?萱,Ellen
80021,彭俊生,Green
80269,夏衛東,Velen
90393,李孝煌,Urbane
90444,戴亨諭,Henry
90456,林晨貽,Molly
90465,李忠信,Ethan
80122,賴何,Leo
90486,陳世豪,Bernie
90448,楊茹婷,Anita
90503,張瑋倫,Weilun
90504,陳家鈞,Steven
90482,戴展祺,Tai ChanChi
90483,楊景良,Sam
90348,王建富,Jeff Wang
90391,林靖凱,Kelvin
90499,黃瑞霖,Ray
90496,黃芷瑜,Sophia 
90038,蔡修輝,Nelson
80132,胡京娜,Jingna
90407,劉家瑋,Thomas
80358,楊均,YANG JUN
80342,許薇,KAREN 
90050,朱一峰,Yifeng Zhu
80192,單季華,Jihua Shan
80240,謝春雲,Chunyun Xie
80293,唐擁軍,Stone
90457,蕭孟堯,Morgan
90134,簡美娥,Anita
90352,劉俊豪,Chris
80318,童科娟,Patty 
80271,胡麗,Lisa
90455,黃奕智,Andrew
80173,段良輝,Luke
90480,鍾奇軒,Joe
80290,劉小玲,LIU XIAO LING
80326,劉澤榮,Zerong Liu
80196,陽麗雲,Yang Liyun
80346,段豔花,DUAN YAN HUA
80112,朱剛,Zhu Gang
80291,鄧禮榮,DENG LI RONG
80344,吳月娥,WU YUE E
80167,唐虎,Tiger
90449,蔡昀達,Arthur
80210,張新場,XinChang Zhan
80332,鄧金其,DENG JIN QI
80335,廖善榮,LIAO SHAN RONG
80000,王治華,Zhihua Wang
80348,歐陽艷,Yang Yan Ou
90364,周金鋒,James
80227,余小艷,Xiaoyan Yu
80233,鄧建軍,Jianjun deng
80246,鄧雪英,Xieying Deng
80254,任錫芬,Xifen Ren
90263,陳正川,Johnson 
80092,胡桂雲,Yun Hu
80328,向雪梅,XIANG XUE MEI
80340,張興君,Xingjun Zhang
80343,黎小姣,LI XIAO JIAO
80249,何海軍,Haijun He
80351,劉秋梅,LIU QIU MEI
80347,譚慶偉,Qingwei Tan
80355,吳滿玉,WU MAN YU
80356,羅中華,LUO ZHONG HUA
90331,鍾順宏,Matt
90417,黃一民,BJ
90439,孫碧穗,Lila
90492,吳庭安,Allen
90388,林建銘,Will
90421,潘筱暄,Kay
90529,賴怡伶,Irene
90533,崔勝文,Tommy
90534,蔡承機,Frank
80350,王艷芳,WANG YAN FANG
90384,林樹涼,Cruise
90512,呂雯慧,Vicky
90226,陳境憲,Jason
80187,葉建明,Jim
90284,李茂嘉,Gray
90464,阮思涵,Bess
90515,賴郁菁,Jean
80041,胡青艷,Sunny
80288,張志玉,Zhiyu zhang
70015,鄒瓊英,Alice
80207,楊高,Yang Gao
80164,肖尊磊,Tony
80175,陳永紅,Yong Chen
80231,李瑞榮,Li Ruirong
80278,羅陽春,Luo YangChun
80280,全小亮,Quan.xiaoliang
80297,王興,Xing Wang
80319,蔣武軍,Wujun Jiang
80204,陳振明,Zhenming Chen
80120,李成均,Chengjun Li
90164,蕭銘欽,Qing shiao
80145,劉赤軍,Gauge
80299,范莉,Fang Li
80101,楊冬明,Grace
90412,紀詳盈,Karis
80166,谷志暉,Sindy
80176,譙群珍,Zhen Qiao
90007,曾芳章,Martin
80136,龍雲梅,Mei
80209,谷志容,Zhirong Gu
80229,秦林鳳,Phoenix
80235,文海雲,Gavin Wen
80257,江燕,Jiang Yan
80300,易芳桂,Yifang Gui
80311,段志平,Zhiping Duan
80315,張宜軍,Yijun Zhang
80316,袁書文,Shuwen Yuan
80321,唐金章,Tang Jinzhang
80334,秦錕,Kun Qin
80345,何桂華,Nick He
80357,張志強,ZHANG ZHI QIANG
90537,施郁文,Amy Shih
80354,AMOS HEIDY PAREDES,Heidy
80182,譚良瓊,Joan
90359,郭筱玫,Mel
90460,何志鵬,Ian Ho
90511,吳尚曉,Sunshine
80359,莫清華,MO QING HUA 
80264,曹德牛,Deniel
80265,程朝陽,Chaoyang Cheng
80267,張勝強,ZHANG SHENG QIANG
80253,梁霖清,Daniel
90434,黃士凱,Sky
90107,周裕仁,Alan
70049,謝忠香,Jane
90451,陳宇岳,Eric
90508,潘浚瑋,Kate
90536,陳立芳,Dorothy Chen
90374,潘志宏,Panada
90413,王威欽,Wiliam
90491,張珮珊,Dora
90535,唐培倫,Peter Tang
90436,李隆元,Bryant 
90431,謝豐鍵,James
90498,徐崇善,Simon
90265,高國智,Taylor